{
    "all": {
        "listen": {
            "validated": 13323,
            "accepted": 11912,
            "rejected": 1328,
            "reported": 83
        },
        "speak": {
            "sent": 6532,
            "reported": 64
        }
    },
    "ab": {
        "listen": {
            "validated": 0,
            "accepted": 0,
            "rejected": 0,
            "reported": 0
        },
        "speak": {
            "sent": 0,
            "reported": 0
        }
    },
    "ar": {
        "listen": {
            "validated": 121,
            "accepted": 82,
            "rejected": 38,
            "reported": 1
        },
        "speak": {
            "sent": 75,
            "reported": 0
        }
    },
    "as": {
        "listen": {
            "validated": 0,
            "accepted": 0,
            "rejected": 0,
            "reported": 0
        },
        "speak": {
            "sent": 0,
            "reported": 0
        }
    },
    "bas": {
        "listen": {
            "validated": 0,
            "accepted": 0,
            "rejected": 0,
            "reported": 0
        },
        "speak": {
            "sent": 0,
            "reported": 0
        }
    },
    "bg": {
        "listen": {
            "validated": 0,
            "accepted": 0,
            "rejected": 0,
            "reported": 0
        },
        "speak": {
            "sent": 0,
            "reported": 0
        }
    },
    "br": {
        "listen": {
            "validated": 0,
            "accepted": 0,
            "rejected": 0,
            "reported": 0
        },
        "speak": {
            "sent": 0,
            "reported": 0
        }
    },
    "ca": {
        "listen": {
            "validated": 85,
            "accepted": 79,
            "rejected": 6,
            "reported": 0
        },
        "speak": {
            "sent": 0,
            "reported": 0
        }
    },
    "cnh": {
        "listen": {
            "validated": 0,
            "accepted": 0,
            "rejected": 0,
            "reported": 0
        },
        "speak": {
            "sent": 0,
            "reported": 0
        }
    },
    "cs": {
        "listen": {
            "validated": 176,
            "accepted": 169,
            "rejected": 7,
            "reported": 0
        },
        "speak": {
            "sent": 203,
            "reported": 0
        }
    },
    "cv": {
        "listen": {
            "validated": 0,
            "accepted": 0,
            "rejected": 0,
            "reported": 0
        },
        "speak": {
            "sent": 0,
            "reported": 0
        }
    },
    "cy": {
        "listen": {
            "validated": 7,
            "accepted": 7,
            "rejected": 0,
            "reported": 0
        },
        "speak": {
            "sent": 1,
            "reported": 0
        }
    },
    "de": {
        "listen": {
            "validated": 705,
            "accepted": 666,
            "rejected": 37,
            "reported": 2
        },
        "speak": {
            "sent": 169,
            "reported": 1
        }
    },
    "dv": {
        "listen": {
            "validated": 0,
            "accepted": 0,
            "rejected": 0,
            "reported": 0
        },
        "speak": {
            "sent": 0,
            "reported": 0
        }
    },
    "el": {
        "listen": {
            "validated": 91,
            "accepted": 85,
            "rejected": 6,
            "reported": 0
        },
        "speak": {
            "sent": 31,
            "reported": 0
        }
    },
    "en": {
        "listen": {
            "validated": 2845,
            "accepted": 2464,
            "rejected": 373,
            "reported": 8
        },
        "speak": {
            "sent": 1473,
            "reported": 5
        }
    },
    "eo": {
        "listen": {
            "validated": 786,
            "accepted": 517,
            "rejected": 269,
            "reported": 0
        },
        "speak": {
            "sent": 803,
            "reported": 11
        }
    },
    "es": {
        "listen": {
            "validated": 1626,
            "accepted": 1471,
            "rejected": 137,
            "reported": 18
        },
        "speak": {
            "sent": 520,
            "reported": 10
        }
    },
    "et": {
        "listen": {
            "validated": 0,
            "accepted": 0,
            "rejected": 0,
            "reported": 0
        },
        "speak": {
            "sent": 0,
            "reported": 0
        }
    },
    "eu": {
        "listen": {
            "validated": 4,
            "accepted": 3,
            "rejected": 1,
            "reported": 0
        },
        "speak": {
            "sent": 0,
            "reported": 0
        }
    },
    "fa": {
        "listen": {
            "validated": 0,
            "accepted": 0,
            "rejected": 0,
            "reported": 0
        },
        "speak": {
            "sent": 0,
            "reported": 0
        }
    },
    "fi": {
        "listen": {
            "validated": 83,
            "accepted": 83,
            "rejected": 0,
            "reported": 0
        },
        "speak": {
            "sent": 9,
            "reported": 0
        }
    },
    "fr": {
        "listen": {
            "validated": 449,
            "accepted": 378,
            "rejected": 68,
            "reported": 3
        },
        "speak": {
            "sent": 140,
            "reported": 1
        }
    },
    "fy-NL": {
        "listen": {
            "validated": 0,
            "accepted": 0,
            "rejected": 0,
            "reported": 0
        },
        "speak": {
            "sent": 0,
            "reported": 0
        }
    },
    "ga-IE": {
        "listen": {
            "validated": 280,
            "accepted": 171,
            "rejected": 109,
            "reported": 0
        },
        "speak": {
            "sent": 203,
            "reported": 2
        }
    },
    "gl": {
        "listen": {
            "validated": 0,
            "accepted": 0,
            "rejected": 0,
            "reported": 0
        },
        "speak": {
            "sent": 0,
            "reported": 0
        }
    },
    "hi": {
        "listen": {
            "validated": 127,
            "accepted": 114,
            "rejected": 9,
            "reported": 4
        },
        "speak": {
            "sent": 81,
            "reported": 0
        }
    },
    "hsb": {
        "listen": {
            "validated": 0,
            "accepted": 0,
            "rejected": 0,
            "reported": 0
        },
        "speak": {
            "sent": 0,
            "reported": 0
        }
    },
    "hu": {
        "listen": {
            "validated": 0,
            "accepted": 0,
            "rejected": 0,
            "reported": 0
        },
        "speak": {
            "sent": 0,
            "reported": 0
        }
    },
    "ia": {
        "listen": {
            "validated": 372,
            "accepted": 359,
            "rejected": 8,
            "reported": 5
        },
        "speak": {
            "sent": 31,
            "reported": 1
        }
    },
    "id": {
        "listen": {
            "validated": 0,
            "accepted": 0,
            "rejected": 0,
            "reported": 0
        },
        "speak": {
            "sent": 0,
            "reported": 0
        }
    },
    "it": {
        "listen": {
            "validated": 645,
            "accepted": 592,
            "rejected": 31,
            "reported": 22
        },
        "speak": {
            "sent": 481,
            "reported": 26
        }
    },
    "ja": {
        "listen": {
            "validated": 1,
            "accepted": 1,
            "rejected": 0,
            "reported": 0
        },
        "speak": {
            "sent": 6,
            "reported": 0
        }
    },
    "ka": {
        "listen": {
            "validated": 45,
            "accepted": 43,
            "rejected": 1,
            "reported": 1
        },
        "speak": {
            "sent": 64,
            "reported": 0
        }
    },
    "kab": {
        "listen": {
            "validated": 22,
            "accepted": 15,
            "rejected": 7,
            "reported": 0
        },
        "speak": {
            "sent": 65,
            "reported": 0
        }
    },
    "kk": {
        "listen": {
            "validated": 0,
            "accepted": 0,
            "rejected": 0,
            "reported": 0
        },
        "speak": {
            "sent": 0,
            "reported": 0
        }
    },
    "kmr": {
        "listen": {
            "validated": 0,
            "accepted": 0,
            "rejected": 0,
            "reported": 0
        },
        "speak": {
            "sent": 0,
            "reported": 0
        }
    },
    "ky": {
        "listen": {
            "validated": 0,
            "accepted": 0,
            "rejected": 0,
            "reported": 0
        },
        "speak": {
            "sent": 0,
            "reported": 0
        }
    },
    "lg": {
        "listen": {
            "validated": 0,
            "accepted": 0,
            "rejected": 0,
            "reported": 0
        },
        "speak": {
            "sent": 0,
            "reported": 0
        }
    },
    "lt": {
        "listen": {
            "validated": 0,
            "accepted": 0,
            "rejected": 0,
            "reported": 0
        },
        "speak": {
            "sent": 0,
            "reported": 0
        }
    },
    "lv": {
        "listen": {
            "validated": 0,
            "accepted": 0,
            "rejected": 0,
            "reported": 0
        },
        "speak": {
            "sent": 0,
            "reported": 0
        }
    },
    "mn": {
        "listen": {
            "validated": 0,
            "accepted": 0,
            "rejected": 0,
            "reported": 0
        },
        "speak": {
            "sent": 0,
            "reported": 0
        }
    },
    "mt": {
        "listen": {
            "validated": 0,
            "accepted": 0,
            "rejected": 0,
            "reported": 0
        },
        "speak": {
            "sent": 0,
            "reported": 0
        }
    },
    "nl": {
        "listen": {
            "validated": 204,
            "accepted": 190,
            "rejected": 14,
            "reported": 0
        },
        "speak": {
            "sent": 82,
            "reported": 0
        }
    },
    "or": {
        "listen": {
            "validated": 0,
            "accepted": 0,
            "rejected": 0,
            "reported": 0
        },
        "speak": {
            "sent": 0,
            "reported": 0
        }
    },
    "pa-IN": {
        "listen": {
            "validated": 0,
            "accepted": 0,
            "rejected": 0,
            "reported": 0
        },
        "speak": {
            "sent": 43,
            "reported": 1
        }
    },
    "pl": {
        "listen": {
            "validated": 87,
            "accepted": 84,
            "rejected": 2,
            "reported": 1
        },
        "speak": {
            "sent": 100,
            "reported": 3
        }
    },
    "pt": {
        "listen": {
            "validated": 1289,
            "accepted": 1217,
            "rejected": 60,
            "reported": 12
        },
        "speak": {
            "sent": 614,
            "reported": 0
        }
    },
    "rm-sursilv": {
        "listen": {
            "validated": 0,
            "accepted": 0,
            "rejected": 0,
            "reported": 0
        },
        "speak": {
            "sent": 0,
            "reported": 0
        }
    },
    "rm-vallader": {
        "listen": {
            "validated": 0,
            "accepted": 0,
            "rejected": 0,
            "reported": 0
        },
        "speak": {
            "sent": 0,
            "reported": 0
        }
    },
    "ro": {
        "listen": {
            "validated": 33,
            "accepted": 32,
            "rejected": 1,
            "reported": 0
        },
        "speak": {
            "sent": 9,
            "reported": 0
        }
    },
    "ru": {
        "listen": {
            "validated": 91,
            "accepted": 87,
            "rejected": 3,
            "reported": 1
        },
        "speak": {
            "sent": 1,
            "reported": 0
        }
    },
    "rw": {
        "listen": {
            "validated": 0,
            "accepted": 0,
            "rejected": 0,
            "reported": 0
        },
        "speak": {
            "sent": 0,
            "reported": 0
        }
    },
    "sah": {
        "listen": {
            "validated": 0,
            "accepted": 0,
            "rejected": 0,
            "reported": 0
        },
        "speak": {
            "sent": 0,
            "reported": 0
        }
    },
    "sk": {
        "listen": {
            "validated": 2385,
            "accepted": 2292,
            "rejected": 93,
            "reported": 0
        },
        "speak": {
            "sent": 1124,
            "reported": 0
        }
    },
    "sl": {
        "listen": {
            "validated": 0,
            "accepted": 0,
            "rejected": 0,
            "reported": 0
        },
        "speak": {
            "sent": 0,
            "reported": 0
        }
    },
    "sv-SE": {
        "listen": {
            "validated": 408,
            "accepted": 391,
            "rejected": 17,
            "reported": 0
        },
        "speak": {
            "sent": 62,
            "reported": 0
        }
    },
    "ta": {
        "listen": {
            "validated": 211,
            "accepted": 187,
            "rejected": 24,
            "reported": 0
        },
        "speak": {
            "sent": 57,
            "reported": 2
        }
    },
    "th": {
        "listen": {
            "validated": 0,
            "accepted": 0,
            "rejected": 0,
            "reported": 0
        },
        "speak": {
            "sent": 0,
            "reported": 0
        }
    },
    "tr": {
        "listen": {
            "validated": 38,
            "accepted": 36,
            "rejected": 2,
            "reported": 0
        },
        "speak": {
            "sent": 18,
            "reported": 0
        }
    },
    "tt": {
        "listen": {
            "validated": 0,
            "accepted": 0,
            "rejected": 0,
            "reported": 0
        },
        "speak": {
            "sent": 0,
            "reported": 0
        }
    },
    "uk": {
        "listen": {
            "validated": 0,
            "accepted": 0,
            "rejected": 0,
            "reported": 0
        },
        "speak": {
            "sent": 0,
            "reported": 0
        }
    },
    "vi": {
        "listen": {
            "validated": 102,
            "accepted": 97,
            "rejected": 0,
            "reported": 5
        },
        "speak": {
            "sent": 43,
            "reported": 1
        }
    },
    "vot": {
        "listen": {
            "validated": 0,
            "accepted": 0,
            "rejected": 0,
            "reported": 0
        },
        "speak": {
            "sent": 0,
            "reported": 0
        }
    },
    "zh-CN": {
        "listen": {
            "validated": 0,
            "accepted": 0,
            "rejected": 0,
            "reported": 0
        },
        "speak": {
            "sent": 24,
            "reported": 0
        }
    },
    "zh-HK": {
        "listen": {
            "validated": 5,
            "accepted": 0,
            "rejected": 5,
            "reported": 0
        },
        "speak": {
            "sent": 0,
            "reported": 0
        }
    },
    "zh-TW": {
        "listen": {
            "validated": 0,
            "accepted": 0,
            "rejected": 0,
            "reported": 0
        },
        "speak": {
            "sent": 0,
            "reported": 0
        }
    }
}
